1 10 20
100 200 125
201 210 89
900 1000 174
1 11 20
2 12 20
3 13 20
4 14 20
5 15 20
6 16 20
7 17 20
8 18 21
9 19 21
10 20 21
11 21 21
12 22 21
13 23 21
14 24 21
15 25 24
16 26 24
17 27 112
18 28 112
19 29 112
20 30 112
21 31 112
22 32 112
23 33 112
24 34 112
25 35 112
26 36 112
27 37 112
28 38 107
29 39 107
30 40 107
31 41 110
32 42 110
33 43 110
34 44 110
35 45 110
36 46 110
37 47 110
38 48 110
39 49 110
40 50 110
41 51 110
42 52 105
43 53 105
44 54 113
45 55 113
46 56 113
47 57 113
48 58 113
49 59 113
50 60 113
51 61 113
52 62 113
53 63 113
54 64 113
55 65 113
56 66 108
57 67 108
58 68 108
59 69 108
60 70 108
61 71 108
62 72 108
63 73 116
64 74 116
65 75 116
66 76 116
67 77 116
68 78 116
69 79 116
70 80 116
71 81 116
72 82 116
73 83 116
74 84 111
75 85 111
76 86 111
77 87 111
78 88 111
79 89 111
80 90 111
80 100 119
100 100 26
100 1000 179
10000 1000 262
10000 50000 324
50000 100000 351
100000 200000 383
200000 300000 443
300000 400000 441
400000 500000 449
500000 600000 470
600000 700000 509
700000 800000 504
800000 900000 525
800000 850000 525
800000 825000 450
825000 837500 419
837500 845000 525
900000 999999 507
999999 1 525
696093 736623 504
507901 461175 444
58658 83533 351
889074 831765 525
458882 439297 387
128231 160771 383
127391 126745 331
183918 137720 383
665520 583841 509
470298 434091 444
710297 668990 504
847373 914132 476
735878 833654 468
761860 848716 525
590124 688367 509
177686 209554 373
101368 190168 383
394585 406776 405
775450 756850 468
678442 757409 504
735913 731983 424
499811 516521 470
591275 661077 509
456280 429948 400
854040 916257 476
290278 228023 443
396869 427463 449
407826 322633 441
521340 423455 470
516625 597298 452
75870 57517 335
262009 226914 443
84620 20277 351
278130 359140 441
190678 127873 383
31721 11227 308
443182 436235 400
416355 386919 449
17996 101199 351
44219 93100 351
895617 893647 370
601850 527825 452
277161 324029 389
787231 866612 525
7467 83878 351
579566 550981 421
738384 777791 468
337748 387242 441
591877 676936 509
720006 744828 424
309065 237387 407
158645 153997 383
471092 374562 449
363981 343893 441
759419 720341 424
645250 615439 509
845487 775913 525
899635 821428 525
667933 659250 442
247713 173591 443
416634 463881 444
144215 114841 375
530039 487070 470
184731 155447 383
33610 39326 324
838525 772415 525
718828 687529 504
285837 353500 441
541116 479607 470
593843 639859 509
44305 115720 354
319727 387481 441
402946 357227 436
480957 389682 449
124577 184639 383
748016 837441 468
490351 406117 449
609929 668397 509
74 96474 351
12141 30368 308
331404 345706 366
395348 420922 449
633004 675593 442
730583 809612 468
107148 82056 354
176727 273053 443
642295 676022 442
280698 283795 358
12748 29960 308
366510 408861 436
776056 759958 468
533122 485444 470
162460 163972 339
251437 161438 443
296206 365813 441
70895 150343 375
875332 944805 507
115843 123780 336
321179 257284 407
735121 743867 424
