........................
----------------------------------------------------------------------
Ran 24 tests in 0.318s

OK
Name             Stmts   Miss Branch BrPart  Cover   Missing
------------------------------------------------------------
Collatz.py          68      4     34      3    93%   90-92, 97, 50->55, 89->90, 96->97
TestCollatz.py      93      0      0      0   100%
------------------------------------------------------------
TOTAL              161      4     34      3    96%

